{
    "project_name": "The Project",
    "folder_name": "the_project",
    "project_description": "None",
    "general_author": "Author Name",
    "general_email": "author@address.com",
    "general_twitter": "(at)twitter",
    "general_copyright": "Copyright (c) 2024",
    "general_license": "License Type",
    "godot_version": "4.2.1",
    "godot_release": "",
    "godot_arch": "64",
    "godot_mono": "False"
}