; Engine configuration file.
; It's best edited using the editor UI and not directly,
; since the parameters that go here are not all obvious.
;
; Format:
;   [section] ; section goes between []
;   param=value ; assign values to parameters

config_version=4

_global_script_classes=[ {
"base": "Reference",
"class": "Appender",
"language": "GDScript",
"path": "res://addons/gs_logger/appender.gd"
}, {
"base": "Reference",
"class": "Component",
"language": "GDScript",
"path": "res://addons/gs_ecs/component.gd"
}, {
"base": "Node",
"class": "Configuration",
"language": "GDScript",
"path": "res://gs_core/configuration.gd"
}, {
"base": "Appender",
"class": "ConsoleAppender",
"language": "GDScript",
"path": "res://addons/gs_logger/appenders/console_appender.gd"
}, {
"base": "Resource",
"class": "DreamLoSettingsResource",
"language": "GDScript",
"path": "res://gs_dreamlo/resources/dreamlo_settings_resource.gd"
}, {
"base": "Reference",
"class": "Entity",
"language": "GDScript",
"path": "res://addons/gs_ecs/entity.gd"
}, {
"base": "Appender",
"class": "FileAppender",
"language": "GDScript",
"path": "res://addons/gs_logger/appenders/file_appender.gd"
}, {
"base": "Reference",
"class": "Group",
"language": "GDScript",
"path": "res://addons/gs_ecs/group.gd"
}, {
"base": "Layout",
"class": "HtmlLayout",
"language": "GDScript",
"path": "res://addons/gs_logger/layouts/html_layout.gd"
}, {
"base": "Reference",
"class": "Layout",
"language": "GDScript",
"path": "res://addons/gs_logger/layout.gd"
}, {
"base": "Reference",
"class": "Message",
"language": "GDScript",
"path": "res://addons/gs_logger/message.gd"
}, {
"base": "Layout",
"class": "PatternLayout",
"language": "GDScript",
"path": "res://addons/gs_logger/layouts/pattern_layout.gd"
}, {
"base": "Reference",
"class": "System",
"language": "GDScript",
"path": "res://addons/gs_ecs/system.gd"
}, {
"base": "Reference",
"class": "Thing",
"language": "GDScript",
"path": "res://gs_core/thing.gd"
}, {
"base": "Reference",
"class": "UUID",
"language": "GDScript",
"path": "res://gs_core/uuid.gd"
}, {
"base": "Reference",
"class": "Utils",
"language": "GDScript",
"path": "res://addons/gs_logger/utils.gd"
}, {
"base": "Resource",
"class": "ViewResource",
"language": "GDScript",
"path": "res://gs_window_manager/resources/view_resource.gd"
}, {
"base": "Resource",
"class": "WindowManagerResource",
"language": "GDScript",
"path": "res://gs_window_manager/resources/window_manager_resource.gd"
}, {
"base": "Resource",
"class": "WindowResource",
"language": "GDScript",
"path": "res://gs_window_manager/resources/window_resource.gd"
} ]
_global_script_class_icons={
"Appender": "",
"Component": "",
"Configuration": "",
"ConsoleAppender": "",
"DreamLoSettingsResource": "",
"Entity": "",
"FileAppender": "",
"Group": "",
"HtmlLayout": "",
"Layout": "",
"Message": "",
"PatternLayout": "",
"System": "",
"Thing": "",
"UUID": "",
"Utils": "",
"ViewResource": "",
"WindowManagerResource": "",
"WindowResource": ""
}

[application]

config/name="ldtest"
config/description="None"
config/version="0.0.0"

[autoload]

Logger="*res://addons/gs_logger/logger.gd"
Core="*res://gs_core/core.tscn"
SceneManager="*res://gs_scene_manager/scene_manager.tscn"
WindowManager="*res://gs_window_manager/window_manager.tscn"
IconLoader="*res://addons/file-editor/scripts/IconLoader.gd"
LastOpenedFiles="*res://addons/file-editor/scripts/LastOpenedFiles.gd"
ECS="*res://addons/gs_ecs/ecs.gd"

[editor_plugins]

enabled=PoolStringArray( "file-editor", "gs_ecs", "gs_logger" )
